aliviateR Vignette
…
The object returned is a single value representing Sørensen’s–Dice index between the two objects. In this simple case, I’ve provided a simple set of vectors as inputs. The function can be run with NIFTI objects as well. Simply read in the images and provide them as inputs.

I have also included a function, aliviateR::dsc_mult_thresholds(), that calculates Sørensen–Dice index or coefficient for a variety of thresholds input when provided a probability map. Again, gold_standard and prob_map can be vectors or NIFTI objects so long as they match. thresholds is a grid of thresholds you would like to threshold the probability map to obtain binary values. Notice, mask = NULL by default. A mask is required if you provide NIFTI objects but can remain NULL if the inputs are already vectorized. In this example, I’ll show it for vectors and therefore do not need a mask. If you provide NIFTI objects then you’ll need to provide a mask of the area like a brain mask.

prob_map =  runif(100, 0, 1)
gold_standard = ifelse(prob_map > 0.9, 1, 0)
thresholds = seq(from = 0, to = 1, by = 0.05)

dsc_mult_thresholds(gold_standard, 
                    prob_map, 
                    thresholds, 
                    mask = NULL)
#> # A tibble: 21 x 2
#>    threshold   dsc
#>        <dbl> <dbl>
#>  1      0    0.113
#>  2      0.05 0.12 
#>  3      0.1  0.130
#>  4      0.15 0.135
#>  5      0.2  0.140
#>  6      0.25 0.15 
#>  7      0.3  0.164
#>  8      0.35 0.179
#>  9      0.4  0.194
#> 10      0.45 0.218
#> # … with 11 more rows
…
